Synthetic Assessment Data Pipeline (SAD-Pipe) - Simulation
…
## Visualization complete!

results$answer_matrix

## # A tibble: 200 × 80
##    item1 item2 item3 item4 item5 item6 item7 item8 item9 item10 item11 item12
##    <chr> <chr> <chr> <chr> <chr> <chr> <chr> <chr> <chr> <chr>  <chr>  <chr> 
##  1 B     D     C     A     A     B     D     B     C     A      C      C     
##  2 A     B     D     A     A     D     D     C     C     B      C      C     
##  3 A     D     B     A     A     D     D     C     C     B      B      B     
##  4 C     B     B     A     A     B     D     C     C     C      B      C     
##  5 A     B     B     A     A     B     D     B     B     B      A      C     
##  6 A     D     B     A     B     C     C     D     C     C      B      C     
##  7 C     D     B     A     A     D     D     C     B     C      B      B     
##  8 A     B     B     A     A     B     D     B     B     B      C      A     
##  9 A     B     B     A     A     D     D     C     C     B      B      B     
## 10 A     B     B     A     C     D     D     C     B     C      B      C     
## # ℹ 190 more rows
## # ℹ 68 more variables: item13 <chr>, item14 <chr>, item15 <chr>, item16 <chr>,
## #   item17 <chr>, item18 <chr>, item19 <chr>, item20 <chr>, item21 <chr>,
## #   item22 <chr>, item23 <chr>, item24 <chr>, item25 <chr>, item26 <chr>,
## #   item27 <chr>, item28 <chr>, item29 <chr>, item30 <chr>, item31 <chr>,
## #   item32 <chr>, item33 <chr>, item34 <chr>, item35 <chr>, item36 <chr>,
## #   item37 <chr>, item38 <chr>, item39 <chr>, item40 <chr>, item41 <chr>, …
