Synthetic Assessment Data Pipeline (SAD-Pipe) - Analysis
…
  # --- ASSEMBLY ---
  (p1 | p2) / (p3 | p4) / (p5 | p6) + 
    plot_layout(heights = c(1, 1, 0.7)) & 
    theme(plot.title = element_text(size = 10, face = "bold"))
}

plot_df <- answer_matrix
plot_df['score'] <-  testtakers_post_analysis['score_pct']
plot_df

## # A tibble: 200 × 81
##    item1 item2 item3 item4 item5 item6 item7 item8 item9 item10 item11 item12
##    <chr> <chr> <chr> <chr> <chr> <chr> <chr> <chr> <chr> <chr>  <chr>  <chr> 
##  1 B     D     C     A     A     B     D     B     C     A      C      C     
##  2 A     B     D     A     A     D     D     C     C     B      C      C     
##  3 A     D     B     A     A     D     D     C     C     B      B      B     
##  4 C     B     B     A     A     B     D     C     C     C      B      C     
##  5 A     B     B     A     A     B     D     B     B     B      A      C     
##  6 A     D     B     A     B     C     C     D     C     C      B      C     
##  7 C     D     B     A     A     D     D     C     B     C      B      B     
##  8 A     B     B     A     A     B     D     B     B     B      C      A     
##  9 A     B     B     A     A     D     D     C     C     B      B      B     
## 10 A     B     B     A     C     D     D     C     B     C      B      C     
## # ℹ 190 more rows
## # ℹ 69 more variables: item13 <chr>, item14 <chr>, item15 <chr>, item16 <chr>,
## #   item17 <chr>, item18 <chr>, item19 <chr>, item20 <chr>, item21 <chr>,
## #   item22 <chr>, item23 <chr>, item24 <chr>, item25 <chr>, item26 <chr>,
## #   item27 <chr>, item28 <chr>, item29 <chr>, item30 <chr>, item31 <chr>,
## #   item32 <chr>, item33 <chr>, item34 <chr>, item35 <chr>, item36 <chr>,
## #   item37 <chr>, item38 <chr>, item39 <chr>, item40 <chr>, item41 <chr>, …
…
  fig_panel <- plot_item_descriptive_grid(item_analysis_ctt_irt, plot_df, binary, curr_item)
  
  save_item_figure(fig_panel, BASE_DIR, curr_item, curr_type, suffix = "_panel_r")
})

cat("All item plots generated and saved.")

## All item plots generated and saved.

item_analysis_ctt_irt

## # A tibble: 80 × 13
##    item   item_type  num_options correct_answer a_param b_param    slip
##    <chr>  <chr>            <dbl> <chr>            <dbl>   <dbl>   <dbl>
##  1 item1  regular              4 A                0.712  -1.11  0.00946
##  2 item2  misleading           4 D                0.626   0.239 0.114  
##  3 item3  regular              5 B                0.560  -2.70  0.0430 
##  4 item4  regular              5 A                1.15   -2.11  0.0479 
##  5 item5  misleading           3 A                0.983  -1.09  0.0448 
##  6 item6  regular              4 D                1.10    0.237 0.0412 
##  7 item7  regular              5 D                0.505  -1.66  0.0230 
##  8 item8  regular              4 C                0.963  -0.784 0.0451 
##  9 item9  regular              4 C                0.929  -0.223 0.00736
## 10 item10 regular              3 B                1.27    0.607 0.00331
## # ℹ 70 more rows
## # ℹ 6 more variables: distractors <list>, distractor_weights <list>,
## #   difficulty <dbl>, discrimination <dbl>, a_hat <dbl>, b_hat <dbl>
